^C:\USERS\MAGSHIMIM\DESKTOP\HW17-RADWAN-MATALA 1\HW17-RADWAN\DEBUG\CLIENT.OBJ|C:\USERS\MAGSHIMIM\DESKTOP\HW17-RADWAN-MATALA 1\HW17-RADWAN\DEBUG\CRYPTODEVICE.OBJ
C:\USERS\MAGSHIMIM\DESKTOP\HW17-RADWAN-MATALA 1\DEBUG\HW17-RADWAN.EXE
C:\USERS\MAGSHIMIM\DESKTOP\HW17-RADWAN-MATALA 1\DEBUG\HW17-RADWAN.ILK
C:\USERS\MAGSHIMIM\DESKTOP\HW17-RADWAN-MATALA 1\DEBUG\HW17-RADWAN.PDB
